…
I will also make the contributor.state variable, which designates the state of the donor, a factor. This will allow for more streamlined aggregation along state lines later. I follow the same process as before, defining the variable as a factor in the read_csv() command.

Of note is that there is one listed problem with the parsing process; this is attributed to issues with the version of R being used. Despite reading in the date value in Column 2 correctly, R believes it has come across an error. An examination of the data clearly shows that the correct date is listed. Thus, this parsing issue can be ignored and we can proceed with the analysis.

donations<-read_csv('president.csv', 
                    col_types = cols(cycle = col_factor(levels =  c('1980','1982','1984','1986','1988','1990','1992','1994','1996','1998','2000','2002','2004','2006','2008','2010','2012','2014','2016'), ordered = TRUE),
                                     recipient.party = col_factor(),
                                     contributor.state = col_factor())) %>%
  mutate(recipient.party = fct_recode(recipient.party, Democrat = "100", Republican = "200", Independent = "328"))
donations

## Warning: One or more parsing issues, see `problems()` for details

## # A tibble: 12,353,166 x 46
##    cycle transaction.id            transaction.type amount date       bonica.cid
##    <ord> <chr>                     <chr>             <dbl> <date>          <dbl>
##  1 1984  comm:1984:111773          24K                 100 1984-09-24          1
##  2 1986  comm:1986:118145          24K                -100 1985-01-18          1
##  3 2012  e:ind:2012:12120806464849 15                  500 2012-10-25          4
##  4 1980  comm:1980:76130           24K                 250 1979-08-19         26
##  5 1984  comm:1984:111794          24K                 500 1983-08-04         26
##  6 1984  comm:1984:36              24K                1000 1983-01-25         26
##  7 1984  comm:1984:41              24K               -1000 1983-01-25         26
##  8 1984  comm:1984:75              24K                 500 1983-04-25         26
##  9 1988  comm:1988:111113          24K                 250 NA                 26
## 10 1988  comm:1988:232009          18K                 250 NA                 26
## # ... with 12,353,156 more rows, and 40 more variables: contributor.name <chr>,
## #   contributor.lname <chr>, contributor.fname <chr>, contributor.mname <chr>,
## #   contributor.suffix <chr>, contributor.title <chr>,
## #   contributor.ffname <chr>, contributor.type <chr>, contributor.gender <chr>,
## #   contributor.address <chr>, contributor.city <chr>, contributor.state <fct>,
## #   contributor.zipcode <dbl>, contributor.occupation <chr>,
## #   contributor.employer <chr>, is.corp <chr>, recipient.name <chr>, ...
…
